{
    "sourcetype stanza parsing": {
        "prefix": "props-sourcetype-parsing",
        "body": [
            "# Props for sourcetype ${1:my:sourcetype}",
            "[${1:my:sourcetype}]",
            "TIME_PREFIX = ${2:^}",
            "TZ = ${3:UTC}",
            "TIME_FORMAT = ${4:%s}",
            "MAX_TIMESTAMP_LOOKAHEAD = ${5:128}",
            "LINE_BREAKER = ${6:([\\r\\n]+)}",
            "TRUNCATE = ${7:10000}",
            "SHOULD_LINEMERGE = ${8:false}"
        ],
        "description": "Generate props.conf sourcetype stanza for parsing phase"
    },
    "sourcetype stanza searching": {
        "prefix": "props-sourcetype-search",
        "body": [
            "# Props for sourcetype ${1:my:sourcetype}",
            "[${1:my:sourcetype}]",
            "# 1. EXTRACT",
            "#EXTRACT-<class> = [<regex>|<regex> in <src_field>]",
            "# 2. REPORT",
            "#REPORT-<class> = <transform_stanza_name>, <transform_stanza_name2>,...",
            "# 3. KV_MODE",
            "# 4. FIELDALIAS",
            "#FIELDALIAS-<class> = (<orig_field_name> AS <new_field_name>)",
            "# 5. EVAL",
            "#EVAL-<fieldname> = <eval statement>",
            "#INDEXED_EXTRACTIONS = [none|auto|auto_escaped|multi|json|xml]"
        ],
        "description": "Generate props.conf sourcetype stanza for searching phase"
    }
}